…
Notice how we have one row per day, with columns representing different
measures.

*As an aside, notice how I specified the `n = 10L`. The `L` confirms for
`R` that we are passing an integer value. Usually, functions will work
without it, but it is a good idea to be clear to `R` that you want an
integer and only an integer. Ignoring this works until it doesn’t!*

Next, we’ll explore the long data:

``` r
head(nyt_long, n = 40L)
```

    ## # A tibble: 40 × 3
    ##    date       measure        value
    ##    <date>     <chr>          <dbl>
    ##  1 2020-01-21 cases              1
    ##  2 2020-01-21 cases_avg7_pc     NA
    ##  3 2020-01-21 deaths             0
    ##  4 2020-01-21 deaths_avg7_pc    NA
    ##  5 2020-01-22 cases              1
    ##  6 2020-01-22 cases_avg7_pc     NA
    ##  7 2020-01-22 deaths             0
    ##  8 2020-01-22 deaths_avg7_pc    NA
    ##  9 2020-01-23 cases              1
    ## 10 2020-01-23 cases_avg7_pc     NA
    ## # … with 30 more rows
…
